…
df %>% 
  count(esmo2013, esmo2016, esmo2020)
#> # A tibble: 24 × 4
#>    esmo2013 esmo2016          esmo2020              n
#>    <chr>    <chr>             <chr>             <int>
#>  1 high     advanced          advanced              2
#>  2 high     advanced          high                 10
#>  3 high     high              advanced             43
#>  4 high     high              high                146
#>  5 high     high              high-intermediate    59
#>  6 high     high              intermediate          4
#>  7 high     high              <NA>                160
#>  8 high     high-intermediate high-intermediate    14
#>  9 high     high-intermediate <NA>                  1
#> 10 high     metastatic        metastatic            6
#> # … with 14 more rows
```
